R4SS Workshop - Day 3B Practice
…
Expand your regression model from Question 1(b) to become a multiple regression model that also includes students’ sex (sex) as a predictor. What are the two predictor variables’ partial effects?

Statistically test whether the effect of television watching depends on students’ sex and generate a plot that shows the model’s predictions (to help you interpret any interaction effect).

Click here for the answer key

Answer (a)

library(tidyverse)
political <- 
  read_csv("political.csv") |> 
  mutate(sex = factor(sex, levels = c(0, 1), labels = c("Male", "Female"))) |> 
  print()

#> # A tibble: 59 × 9
#>    student  year sex    voting         read_news read_…¹ tv_news ethic…² infor…³
#>      <dbl> <dbl> <fct>  <chr>              <dbl>   <dbl>   <dbl>   <dbl>   <dbl>
#>  1       1     1 Female Not Registered         3       1       0       2       2
#>  2       2     4 Female Voted                  1       1       3       2       2
#>  3       3     2 Male   Voted                  4       1       3       2       3
#>  4       4     3 Female Voted                  3       1       0       3       2
#>  5       5     1 Female Voted                  2       0       0       2       3
#>  6       6     2 Female Didn't Vote            3       1       3       2       4
#>  7       7     1 Male   Didn't Vote            4       1       0       4       4
#>  8       8     3 Female Voted                  2       1       1       2       3
#>  9       9     4 Male   Voted                  3       1       0       4       3
#> 10      10     4 Female Voted                  3       0       4       3       3
#> # … with 49 more rows, and abbreviated variable names ¹​read_edit,
#> #   ²​ethical_practical, ³​informed
#> # ℹ Use `print(n = ...)` to see more rows
…
